art1
…
set.seed(1)
n <- 50
dat <- tibble(
  x0 = runif(n),
  y0 = runif(n),
  x1 = x0 + runif(n, min = -.2, max = .2),
  y1 = y0 + runif(n, min = -.2, max = .2),
  shade = runif(n), 
  size = runif(n)
)
dat

# A tibble: 50 × 6
       x0     y0    x1      y1 shade  size
    <dbl>  <dbl> <dbl>   <dbl> <dbl> <dbl>
 1 0.266  0.478  0.327  0.523  0.268 0.762
 2 0.372  0.861  0.313  0.884  0.219 0.933
 3 0.573  0.438  0.481  0.370  0.517 0.471
 4 0.908  0.245  1.11   0.226  0.269 0.604
 5 0.202  0.0707 0.255  0.0709 0.181 0.485
 6 0.898  0.0995 0.784 -0.0282 0.519 0.109
 7 0.945  0.316  0.796  0.328  0.563 0.248
 8 0.661  0.519  0.652  0.349  0.129 0.499
 9 0.629  0.662  0.799  0.573  0.256 0.373
10 0.0618 0.407  0.101  0.292  0.718 0.935
# ℹ 40 more rows
…
